{
  "Amazon AWS Access Key ID": "AKIA[0-9A-Z]{16}",
  "Amazon AWS Secret Access Key": "[\\s][a-zA-Z0-9]{40}[\\s]",
  "Amazon MWS Auth Token": "amzn\\.mws\\.[0-9a-f]{8}-[0-9a-f]{4}-[0-9a-f]{4}-[0-9a-f]{4}-[0-9a-f]{12}",
  "Facebook Access Token": "EAACEdEose0cBA[0-9A-Za-z]+",
  "Facebook OAuth": "[f|F][a|A][c|C][e|E][b|B][o|O][o|O][k|K].*['|\"][0-9a-f]{32}['|\"]",
  "Generic API Key": "[a|A][p|P][i|I][_]?[k|K][e|E][y|Y].*['|\"][0-9a-zA-Z]{32,45}['|\"]",
  "Generic Secret": "[s|S][e|E][c|C][r|R][e|E][t|T].*['|\"][0-9a-zA-Z]{32,45}['|\"]",
  "GitHub": "[g|G][i|I][t|T][h|H][u|U][b|B].*['|\"][0-9a-zA-Z]{35,40}['|\"]",
  "GitLab PAT": "glpat-[0-9a-zA-Z\\-_]{20}",
  "GitLab Registration Token": "(_|-?)([t|T][o|O][k|K][e|E][n|N])(:|=| )(.{0,3})(\\S{20})(.?)(\\n|\\r|\\n\\r|$)",
  "GitLab Trigger Token": "glptt-[0-9a-f]{40}",
  "GitLab Runner Registration Token": "GR1348941[0-9a-zA-Z\\-_]{20}",
  "Google (GCP) Service-account": "\"type\": \"service_account\"",
  "Google API Key": "AIza[0-9A-Za-z\\-_]{35}",
  "Google Cloud Platform API Key": "AIza[0-9A-Za-z\\-_]{35}",
  "Google Cloud Platform OAuth": "[0-9]+-[0-9A-Za-z_]{32}\\.apps\\.googleusercontent\\.com",
  "Google Drive OAuth": "[0-9]+-[0-9A-Za-z_]{32}\\.apps\\.googleusercontent\\.com",
  "Google OAuth Access Token": "ya29\\.[0-9A-Za-z\\-_]+",
  "Google YouTube OAuth": "[0-9]+-[0-9A-Za-z_]{32}\\.apps\\.googleusercontent\\.com",
  "Heroku API Key": "[h|H][e|E][r|R][o|O][k|K][u|U].*[0-9A-F]{8}-[0-9A-F]{4}-[0-9A-F]{4}-[0-9A-F]{4}-[0-9A-F]{12}",
  "MailChimp API Key": "[0-9a-f]{32}-us[0-9]{1,2}",
  "Mailgun API Key": "key-[0-9a-zA-Z]{32}",
  "Password in URL": "[a-zA-Z]{3,10}://[^/\\s:@]{3,20}:[^/\\s:@]{3,20}@.{1,100}[\"'\\s]",
  "PayPal Braintree Access Token": "access_token\\$production\\$[0-9a-z]{16}\\$[0-9a-f]{32}",
  "Picatic API Key": "sk_live_[0-9a-z]{32}",
  "SSH Key": "(-*)BEGIN [\\s\\S]{2,} PRIVATE KEY(-*)",
  "Send Grid API": "SG\\.[a-zA-Z0-9]{22}\\.[a-zA-Z0-9]{43}",
  "Slack Token": "xox[baprs]-([0-9a-zA-Z]{10,48})?",
  "Slack Webhook": "https://hooks.slack.com/services/T[a-zA-Z0-9_]{8}/B[a-zA-Z0-9_]{8}/[a-zA-Z0-9_]{24}",
  "Square Access Token": "sq0atp-[0-9A-Za-z\\-_]{22}",
  "Square OAuth Secret": "sq0csp-[0-9A-Za-z\\-_]{43}",
  "Stripe API Key": "sk_live_[0-9a-zA-Z]{24}",
  "Stripe Restricted API Key": "rk_live_[0-9a-zA-Z]{24}",
  "Twilio API Key": "SK[0-9a-fA-F]{32}",
  "Twitter Access Token": "[t|T][w|W][i|I][t|T][t|T][e|E][r|R].*[1-9][0-9]+-[0-9a-zA-Z]{40}",
  "Twitter OAuth": "[t|T][w|W][i|I][t|T][t|T][e|E][r|R].*['|\"][0-9a-zA-Z]{35,44}['|\"]"
}
